<svg width="24" height="24" viewBox="0 0 24 24" fill="none" xmlns="http://www.w3.org/2000/svg">
<path fill-rule="evenodd" clip-rule="evenodd" d="M19.2124 16.6778C19.6245 17.0695 20.2798 17.0695 20.6919 16.6779C21.0942 16.2955 21.1038 15.6663 20.7133 15.2724C20.7063 15.2654 18.3047 12.9823 13.5084 8.42313L12.0179 7L10.5206 8.41624L3.30888 15.2779C2.90555 15.6613 2.89597 16.2922 3.28749 16.6871C3.72178 17.1007 4.37886 17.1008 4.79198 16.7081L12.0181 9.83964L19.2124 16.6778Z" fill="#6E7191"/>
<mask id="mask0_1641_20443" style="mask-type:alpha" maskUnits="userSpaceOnUse" x="3" y="7" width="18" height="10">
<path fill-rule="evenodd" clip-rule="evenodd" d="M19.2124 16.6778C19.6245 17.0695 20.2798 17.0695 20.6919 16.6779C21.0942 16.2955 21.1038 15.6663 20.7133 15.2724C20.7063 15.2654 18.3047 12.9823 13.5084 8.42313L12.0179 7L10.5206 8.41624L3.30888 15.2779C2.90555 15.6613 2.89597 16.2922 3.28749 16.6871C3.72178 17.1007 4.37886 17.1008 4.79198 16.7081L12.0181 9.83964L19.2124 16.6778Z" fill="white"/>
</mask>
<g mask="url(#mask0_1641_20443)">
</g>
</svg>
