<svg width="32" height="32" viewBox="0 0 32 32" fill="none" xmlns="http://www.w3.org/2000/svg">
<rect width="32" height="32" rx="5" fill="#007AFF"/>
<path d="M25 24.25V16C25 15.8011 24.921 15.6103 24.7803 15.4697C24.6397 15.329 24.4489 15.25 24.25 15.25H17.5V10C17.5 9.80109 17.421 9.61032 17.2803 9.46967C17.1397 9.32902 16.9489 9.25 16.75 9.25H13V7C13 6.80109 12.921 6.61032 12.7803 6.46967C12.6397 6.32902 12.4489 6.25 12.25 6.25C12.0511 6.25 11.8603 6.32902 11.7197 6.46967C11.579 6.61032 11.5 6.80109 11.5 7V9.25H7.75C7.55109 9.25 7.36032 9.32902 7.21967 9.46967C7.07902 9.61032 7 9.80109 7 10V24.25C6.80109 24.25 6.61032 24.329 6.46967 24.4697C6.32902 24.6103 6.25 24.8011 6.25 25C6.25 25.1989 6.32902 25.3897 6.46967 25.5303C6.61032 25.671 6.80109 25.75 7 25.75H25C25.1989 25.75 25.3897 25.671 25.5303 25.5303C25.671 25.3897 25.75 25.1989 25.75 25C25.75 24.8011 25.671 24.6103 25.5303 24.4697C25.3897 24.329 25.1989 24.25 25 24.25ZM13 21.25H11.5C11.3011 21.25 11.1103 21.171 10.9697 21.0303C10.829 20.8897 10.75 20.6989 10.75 20.5C10.75 20.3011 10.829 20.1103 10.9697 19.9697C11.1103 19.829 11.3011 19.75 11.5 19.75H13C13.1989 19.75 13.3897 19.829 13.5303 19.9697C13.671 20.1103 13.75 20.3011 13.75 20.5C13.75 20.6989 13.671 20.8897 13.5303 21.0303C13.3897 21.171 13.1989 21.25 13 21.25ZM13 17.5H11.5C11.3011 17.5 11.1103 17.421 10.9697 17.2803C10.829 17.1397 10.75 16.9489 10.75 16.75C10.75 16.5511 10.829 16.3603 10.9697 16.2197C11.1103 16.079 11.3011 16 11.5 16H13C13.1989 16 13.3897 16.079 13.5303 16.2197C13.671 16.3603 13.75 16.5511 13.75 16.75C13.75 16.9489 13.671 17.1397 13.5303 17.2803C13.3897 17.421 13.1989 17.5 13 17.5ZM13 13.75H11.5C11.3011 13.75 11.1103 13.671 10.9697 13.5303C10.829 13.3897 10.75 13.1989 10.75 13C10.75 12.8011 10.829 12.6103 10.9697 12.4697C11.1103 12.329 11.3011 12.25 11.5 12.25H13C13.1989 12.25 13.3897 12.329 13.5303 12.4697C13.671 12.6103 13.75 12.8011 13.75 13C13.75 13.1989 13.671 13.3897 13.5303 13.5303C13.3897 13.671 13.1989 13.75 13 13.75ZM21.25 22.75H19.75C19.5511 22.75 19.3603 22.671 19.2197 22.5303C19.079 22.3897 19 22.1989 19 22C19 21.8011 19.079 21.6103 19.2197 21.4697C19.3603 21.329 19.5511 21.25 19.75 21.25H21.25C21.4489 21.25 21.6397 21.329 21.7803 21.4697C21.921 21.6103 22 21.8011 22 22C22 22.1989 21.921 22.3897 21.7803 22.5303C21.6397 22.671 21.4489 22.75 21.25 22.75ZM21.25 19.75H19.75C19.5511 19.75 19.3603 19.671 19.2197 19.5303C19.079 19.3897 19 19.1989 19 19C19 18.8011 19.079 18.6103 19.2197 18.4697C19.3603 18.329 19.5511 18.25 19.75 18.25H21.25C21.4489 18.25 21.6397 18.329 21.7803 18.4697C21.921 18.6103 22 18.8011 22 19C22 19.1989 21.921 19.3897 21.7803 19.5303C21.6397 19.671 21.4489 19.75 21.25 19.75Z" fill="white"/>
</svg>
