<svg width="16" height="27" viewBox="0 0 16 27" fill="none" xmlns="http://www.w3.org/2000/svg">
<path d="M9.47262 10.9006L13.8397 1L1.69727 12.5853L7.37329 16.2397L3.00617 26.1404L15.1486 14.555L9.47262 10.9006Z" fill="#FF9500" stroke="#FF9500" stroke-width="1.50591" stroke-linecap="round" stroke-linejoin="round"/>
</svg>
